﻿localhost:3000/api/usuarios/geo?lng=38.990189196004014&lat=-3.920054186737161

{
"ip_plug" : "192.168.100.135",
"name": "PUERTA",
"description":"description",
"rank": 1,
"available": true,
"geometry": { "type": "Point", "coordinates": [38.990189196002014, -3.920054186737161]}
}

{
"ip_plug" : "192.168.100.135",
"name": "IMPRESORA",
"description":"description",
"rank": 1,
"available": true,
"geometry": { "type": "Point", "coordinates": [38.990189196002014, -3.920054186737161]}
}

{
"ip_plug" : "192.168.100.135",
"name": "LUCES",
"description":"description",
"rank": 3,
"available": true,
"geometry": { "type": "Point", "coordinates": [38.990189196002014, -3.920054186737161]}
}

{
"ip_plug" : "192.168.100.135",
"name": "PRESIANAS",
"description":"description",
"rank": 1,
"available": true,
"geometry": { "type": "Point", "coordinates": [38.990189196002014, -3.920054186737161]}
}

{
"ip_plug" : "192.168.100.135",
"name": "CAFETERA",
"description":"description",
"rank": 2,
"available": true,
"geometry": { "type": "Point", "coordinates": [38.990189196002014, -3.920054186737161]}
}

{
"ip_plug" : "192.168.100.135",
"name": "ORDENADOR",
"description":"description",
"rank": 1,
"available": true,
"geometry": { "type": "Point", "coordinates": [38.990189196002014, -3.920054186737161]}
}

{
"ip_plug" : "192.168.100.135",
"name": "PORTÁTIL",
"description":"description",
"rank": 1,
"available": true,
"geometry": { "type": "Point", "coordinates": [38.990189196002014, -3.920054186737161]}
}
