<?xml version="1.0" standalone="no"?>
<!DOCTYPE svg PUBLIC "-//W3C//DTD SVG 20010904//EN"
 "http://www.w3.org/TR/2001/REC-SVG-20010904/DTD/svg10.dtd">
<svg version="1.0" xmlns="http://www.w3.org/2000/svg"
 width="1280.000000pt" height="1280.000000pt" viewBox="0 0 1280.000000 1280.000000"
 preserveAspectRatio="xMidYMid meet">
<metadata>
Created by potrace 1.15, written by Peter Selinger 2001-2017
</metadata>
<g transform="translate(0.000000,1280.000000) scale(0.100000,-0.100000)"
fill="#4caf50" stroke="none">
<path d="M6035 12789 c-1890 -112 -3621 -1041 -4757 -2554 -1087 -1447 -1509
-3313 -1153 -5090 405 -2014 1749 -3711 3615 -4565 1872 -856 4051 -757 5837
266 1606 920 2734 2485 3098 4299 303 1511 46 3094 -721 4432 -971 1696 -2665
2858 -4589 3148 -444 67 -908 89 -1330 64z"/>
</g>
</svg>
